{
    "workoutLeg": "Treino de perna",
    "exerciseJumpingJacks": "Polichinelos",
    "exerciseWallSit": "Agachamento parede",
    "exercisePushups": "Flexão de braços",
    "exerciseAbCrunches": "Abdominal",
    "exerciseStepups": "Progressos",
    "stepsStepups": "1. De pé de frente para uma cadeira\n2. Suba na cadeira\n3. Desça da cadeira\n4. Repita",
    "exerciseSquats": "Agachamentos",
    "workoutScientific7Minute": "Treino científico de 7 minutos",
    "workoutNeckShoulderStretch": "Alongamento de pescoço e ombros",
    "stepsJumpingJacks": "1. Fique com seus pés juntos e os braços em repouso de cada lado\n2. Pule para uma posição com as pernas bem abertas e as mãos tocando em cima da cabeça\n3. Repita",
    "stepsWallSit": "1. Inclinar-se contra a parede, de frente e com os pés firmemente plantados no chão, com os ombros afastados e a cerca de 2 pés da parede.\n2. Deslize pela parede, mantendo as costas pressionadas, até que as pernas fiquem em ângulo reto. Os joelhos devem estar diretamente acima dos tornozelos.\nDor no quadríceps é normal, pare se sentir dor no joelho ou na rótula",
    "stepsPushups": "Posição inicial:\nFiquebna posição inicial de flexão, com as mãos e dedos dos pés tocando o chão e as costas, braços e pernas retos. Para chegar a esta posição, você pode deitar-se de barriga para baixo, colocar as mãos voltadas para baixo ao lado da cabeça, e levantar os braços até que estejam retos.\n\nPassos:\n1. Dobre-se nos cotovelos até que seu peito quase toque o chão, certificando-se de que suas costas estejam sempre retas.\n2. Use seus braços para levantar-se de volta à posição inicial.\n3. Repita.",
    "stepsAbCrunches": "1. Deite-se de barriga para cima no chão com os joelhos dobrados.\n2. Enrole os ombros em direção à pélvis. As mãos podem estar atrás ou ao lado do pescoço ou cruzadas sobre o peito.\n3. Repita"
}
