{
    "exercisePushups": "Отжимания",
    "exerciseAbCrunches": "Скручивания",
    "exerciseSquats": "Приседания",
    "exerciseChairDips": "Обратные отжимания от стула",
    "exerciseJumpingJacks": "Джампинг-Джек",
    "exerciseHeadTurn": "Повороты головы",
    "workoutScientific7Minute": "Научно-доказанная 7-минутная тренировка",
    "workoutNeckShoulderStretch": "Растяжка шеи и плеч",
    "workoutLeg": "Тренировка ног",
    "exerciseWallSit": "Приседание у стены",
    "stepsSquatThrusts": "Исходное положение:\nНачните с позиции высокой планки: спина, руки и ноги прямые, руки на ширине плеч.\n\nШаги:\n1. Прыгните ногами вперед между руками, держа спину ровной.\n2. Удерживая руки на полу, верните ноги в положение высокой планки.\n3. Повторите.",
    "exerciseJumpRopeBasic": "Скакалка: базовые прыжки",
    "stepsJumpingJacks": "1. Встаньте так, чтобы ноги были вместе, а руки по бокам\n2. Прыгните в положение, когда ноги широко расставлены, а руки касаются над головой\n3. Повторите",
    "exercisePlank": "Планка"
}
