{
    "btnResumeWorkout": "המשך האימון",
    "btnStartWorkout": "התחלת האימון",
    "txtAboutFeeel": "על אודות Feeel",
    "txtAddExerciseFirst": "יש להוסיף תרגיל תחילה",
    "txtNotificationTime": "זמן ההתראה",
    "txtNeedCameraPermission": "לא ניתן לצלם תמונות בלי הרשאת הגישה למצלמה",
    "txtRemindMe": "להזכיר לי להתאמן כל יום",
    "txtNotificationTitle": "זמן להתלבש לאימון!",
    "txtNotificationInfoDesc": "תזכורת יומית לאימון",
    "txtNotificationInfoTitle": "התראה יומית",
    "txtCustom": "התאמה אישית",
    "txtBreakDuration": "משך ההפסקות",
    "txtExerciseDuration": "משך התרגילים",
    "txtDuration": "משך",
    "txtWorkoutExercisesEmpty": "נא להוסיף תרגיל אחד לפחות",
    "txtWorkoutTitleEmpty": "נא לתת לאימון כותרת",
    "txtSettings": "הגדרות",
    "txtEmailCouldNotBeSent": "לא היה ניתן לשלוח את הדוא״ל",
    "txtHowToPerformExercise": "איך לעשות את התרגיל (רשות)",
    "txtExerciseName": "שם התרגיל",
    "txtCategoryLegs": "רגליים",
    "txtBeYourOwnCoach": "להיות המאמן של עצמך!",
    "txtWorkoutTitle": "כותרת האימון",
    "txtBreak": "הפסקה!",
    "txtSecondsLeft5plus": "נותרו %d שניות",
    "txtNextUp": "הבא בתור:",
    "txtYouDidIt": "עשית את זה!",
    "btnAdjustTiming": "התאמת התזמון",
    "btnDisableTTS": "שימוש בצלילים במקום דיבור",
    "btnTakeAPhoto": "צילום תמונה",
    "btnAddPhotoFromGallery": "הוספת תמונה מהגלריה",
    "btnCreateCustomWorkout": "יצירת אימון מותאם אישית",
    "btnMoreInfo": "מידע נוסף",
    "btnDone": "סיום",
    "btnDuplicate": "שכפול",
    "btnDelete": "מחיקה",
    "btnEdit": "עריכה",
    "btnAddExercise": "הוספת תרגילים",
    "btnNextExercise": "התרגיל הבא",
    "btnPreviousExercise": "התרגיל הקודם",
    "btnAddALinkToPhotos": "הוספת קישור לתמונה/ות שלך",
    "btnSubmitViaEmail": "שליחה בדוא״ל",
    "txtFeeelDescription": "יישום אימונים ביתיים בקוד פתוח אשר מכבד את הפרטיות שלך",
    "txtSubmitNewExercise": "תרומה",
    "txtCategoryFullBody": "כל הגוף",
    "txtImageMissing": "חסרה תמונה",
    "txtLetsGoFirstUp": "קדימה! התרגיל הראשון: %s",
    "txtWorkoutToMakeYouFeelBest": "אפשר לעצב את האימון שגורם לך להרגיש הכי נהדר",
    "txtNotificationDesc": "זה לוקח רק כמה דקות עד שמרגישים רעננים ובכושר",
    "btnAddCustomExerice": "הצעת תרגיל מותאם אישית",
    "txtNegativeNumber": "לא חיובי",
    "txtTapForControls": "להצגת הפקדים יש ללחוץ כאן",
    "txtNotANumber": "בלתי־מספרי",
    "txtSubmitExerciseMessageTitle": "תרגיל מוצע: %s",
    "txtYoureGlowing": "כל הכבוד!",
    "btnDiscard": "השלכה",
    "txtDiscardChanges": "להשליך את השינויים?",
    "btnOK": "אישור",
    "btnCancel": "ביטול",
    "txtCustomDuration": "משך זמן מותאם אישית (שנ׳)",
    "txtContributeExerciseExplainer": "‏Feeel מסתמך על מתנדבים כמוך ששולחים תרגילים ותמונות של התרגילים. התמונות יעובדו תחילה באופן פרטי לגרסאות שעברו טריאנגולציה, לאחר מכן יישלחו אליך לאישור ורק לאחר מכן ישוחררו ביישום. עח כל התמונות והטקסט שיישלחו להיות עבודה שלך בלבד. תודה על התרומה!",
    "btnDoneEditingTiming": "עריכת התזמון בוצעה",
    "txtThemeDark": "כהה",
    "txtThemeLight": "בהירה",
    "txtThemeSystem": "ברירת המחדל של המערכת",
    "txtTheme": "ערכת נושא",
    "txtSubmitExerciseMessageContents": "שלום,\n\nשלחתי אליך הצעה לתרגיל. הנני מצהיר/ה בזאת שהן התמונות והן התיאור שצירפתי הם עבודה שלי ושלי בלבד. שליחת הודעה זו מביעה את הסכמתי הבלתי־הפיכה שהשם והתיאור שנשלחו ישוחררו בכפוף לרישיון CC BY-SA 4.0 ו־AGPLv3 עם רישיון חריג של חנות היישומים/אפליקציות. גם אתן הרשאה לעבד את התמונה/ות המצורפ(ו)ת לגרסאות בהן התמונה מורכבת ממצולעים בלבד (Low-Poly). לאחר העיבוד, אשקול אם לקבוע להן את רישיון CC BY-SA 4.0.\n\nשם התרגיל: %1s\nשלבי ביצוע התרגיל:\n%2s",
    "txtBatteryOptimization": "בחלק מהמכשירים ייתכן צורך להשבית את מיטוב הסוללה ל־Feeel כדי שהיישום יעבוד באופן תקין.",
    "txtParticipate": "השתתפות",
    "txtSourceCode": "קוד מקור",
    "txtDonate": "תרומה",
    "txtCouldNotOpenURL": "לא היה ניתן לפתוח את הכתובת.",
    "txtDurationLong": "%1d דק׳, %2d שנ׳",
    "txtOther": "שונות",
    "txtStretchingAndYoga": "מתיחות ויוגה",
    "txtCardio": "סיבולת לב־ריאה",
    "txtNumberInputEmpty": "אין להשאיר שדה זה ריק",
    "txtLanguage": "שפה",
    "btnDeleteThisWorkout": "מחיקת אימון זה",
    "btnBackToWorkoutList": "חזרה לרשימת האימונים",
    "txtNumberInputNonnumeric": "חייב להיות מספר",
    "txtNoExercises": "עדיין אין תרגילים באימון הזה. :("
}
