{
    "txtImageMissing": "Gambar hilang",
    "txtTapForControls": "Ketuk untuk kontrol",
    "txtBreak": "Istirahat!",
    "txtSecondsLeft5plus": "%d detik tersisa",
    "txtLetsGoFirstUp": "Ayo! Pertama: %s",
    "txtNextUp": "Berikutnya:",
    "txtYouDidIt": "Kamu berhasil!",
    "btnAdjustTiming": "Sesuaikan waktu",
    "btnDisableTTS": "Gunakan suara alih-alih ucapan",
    "btnAddALinkToPhotos": "Tambahkan tautan ke foto Anda",
    "btnTakeAPhoto": "Ambil foto",
    "btnAddPhotoFromGallery": "Tambahkan foto dari galeri",
    "btnSubmitViaEmail": "Kirim melalui email",
    "btnAddCustomExerice": "Usulkan latihan khusus",
    "btnCreateCustomWorkout": "Buat latihan khusus",
    "btnMoreInfo": "Info lebih lanjut",
    "btnDone": "Selesai",
    "btnDuplicate": "Duplikat",
    "btnDelete": "Hapus",
    "btnEdit": "Sunting",
    "btnAddExercise": "Tambahkan latihan",
    "btnNextExercise": "Latihan berikutnya",
    "btnPreviousExercise": "Latihan sebelumnya",
    "btnResumeWorkout": "Lanjutkan latihan",
    "btnStartWorkout": "Mulai berolahraga",
    "txtFeeelDescription": "Aplikasi olahraga dari rumah open-source yang menghormati privasi Anda",
    "txtAboutFeeel": "Tentang Feeel",
    "txtAddExerciseFirst": "Tambahkan latihan terlebih dahulu",
    "txtNotificationTime": "Waktu pemberitahuan",
    "txtNeedCameraPermission": "Tidak dapat mengambil foto tanpa izin kamera",
    "txtRemindMe": "Pengingat harian",
    "txtNotificationDesc": "Hanya perlu beberapa menit untuk merasa segar dan bugar",
    "txtNotificationTitle": "Waktunya memakai pakaian olahraga!",
    "txtNotificationInfoDesc": "Pengingat harian untuk berolahraga",
    "txtNotificationInfoTitle": "Pemberitahuan harian",
    "txtNegativeNumber": "Nonpositif",
    "txtNotANumber": "Non-numerik",
    "txtCustom": "Kustom",
    "txtBreakDuration": "Durasi istirahat",
    "txtExerciseDuration": "Durasi latihan",
    "txtDuration": "Durasi",
    "txtWorkoutExercisesEmpty": "Harap tambahkan setidaknya 1 latihan",
    "txtWorkoutTitleEmpty": "Tentukan judul latihan",
    "txtSettings": "Pengaturan",
    "txtSubmitExerciseMessageContents": "Halo,\n\nAku mengirim proposal latihan. Saya dengan ini menyatakan bahwa kedua gambar terpasang dan Deskripsi Benar-benar pekerjaan saya sendiri. Dengan mengirim pesan ini, Aku Tak dapat ditarik kembali setuju untuk memiliki nama yang dikirimkan dan deskripsi dirilis di bawah lisensi CC BY-SA 4.0 dan AGPLv3 dengan lisensi app store. Saya juga memberikan izin untuk memproses image yang terpasang ke varian sederhana. Setelah diproses, saya akan mengevaluasi apakah saya bersedia untuk lisensi mereka di bawah izin CC BY-SA 4.0.\n\nNama latihan: %1s\nLangkah latihan:\n%2s",
    "txtSubmitExerciseMessageTitle": "Usulan latihan:% s",
    "txtEmailCouldNotBeSent": "Email tidak dapat dikirim",
    "txtHowToPerformExercise": "Cara melakukan olahraga (opsional)",
    "txtExerciseName": "Nama latihan",
    "txtContributeExerciseExplainer": "Feeel mengandalkan para sukarelawan sepertimu untuk mengirimkan latihan-latihan dan foto-foto latihan. Setiap foto yang kamu kirimkan akan diproses secara pribadi, lalu dikirimkan kepadamu untuk disetujui, lalu kemudian diluncurkan di aplikasi. Semua foto dan teks yang diserahkan harus menjadi hasil pekerjaan kamu sendiri. Terima kasih telah berkontribusi!",
    "txtSubmitNewExercise": "Berkontribusi",
    "txtYoureGlowing": "Kamu bersinar!",
    "txtCategoryLegs": "Kaki",
    "txtCategoryFullBody": "Seluruh tubuh",
    "txtWorkoutToMakeYouFeelBest": "Rancang latihan yang membuatmu merasa yang terbaik",
    "txtBeYourOwnCoach": "Jadilah pelatihmu sendiri!",
    "txtWorkoutTitle": "Judul latihan",
    "btnDoneEditingTiming": "Waktu pengeditan selesai",
    "btnOK": "Ok",
    "btnDiscard": "Buang",
    "btnCancel": "Batal",
    "txtDiscardChanges": "Batalkan perubahan?",
    "txtCustomDuration": "Durasi kustom (s.)",
    "txtThemeDark": "Gelap",
    "txtThemeLight": "Cerah",
    "txtThemeSystem": "Default sistem",
    "txtTheme": "Tema",
    "txtParticipate": "Berpartisipasi",
    "txtSourceCode": "Kode sumber",
    "txtDonate": "Donasi",
    "txtCouldNotOpenURL": "Tidak dapat membuka URL.",
    "txtBatteryOptimization": "Pada beberapa perangkat, Anda mungkin perlu menonaktifkan optimisasi baterai untuk Feel Bagi ini untuk bekerja dapat dipercaya.",
    "btnEnableTTS": "Gunakan perintah suara",
    "txtOther": "Lainnya",
    "txtCardio": "Kardio",
    "txtStretchingAndYoga": "Peregangan & yoga",
    "txtStrength": "Kekuatan",
    "txtNumberInputEmpty": "Tidak boleh kosong",
    "txtNumberInputNonnumeric": "Harus numerik",
    "txtLanguage": "Bahasa",
    "txtDragToReorder": "Seret ikon handle untuk menyusun ulang latihan.",
    "txtDurationLong": "%1d mnt., %2d dtk.",
    "txtNoExercises": "Tidak ada latihan dalam latihan ini. :(",
    "btnDeleteThisWorkout": "Hapus latihan ini",
    "btnBackToWorkoutList": "Kembali ke daftar latihan"
}
