{
    "txtEmailCouldNotBeSent": "无法发送电子邮件",
    "txtSubmitNewExercise": "贡献",
    "txtYoureGlowing": "你在发光！",
    "txtCategoryLegs": "腿部",
    "txtCategoryFullBody": "全身",
    "txtExerciseName": "锻炼名称",
    "txtWorkoutTitle": "锻炼组合标题",
    "txtWorkoutToMakeYouFeelBest": "设计让你自己感觉最好的锻炼组合",
    "txtBeYourOwnCoach": "做你自己的教练!",
    "txtImageMissing": "图片缺失",
    "txtTapForControls": "点击屏幕，操控软件",
    "txtSecondsLeft5plus": "剩余 %d 秒",
    "txtLetsGoFirstUp": "开始吧！第一个：%s",
    "txtNextUp": "下 一个：",
    "txtYouDidIt": "完成了！",
    "txtCustomDuration": "自定义时长（秒）",
    "txtSourceCode": "源代码",
    "txtDonate": "捐赠",
    "btnDiscard": "放弃",
    "txtCouldNotOpenURL": "无法打开网址。",
    "btnOK": "确定",
    "txtSettings": "设置",
    "txtDuration": "时长",
    "txtExerciseDuration": "运动时长",
    "txtBreakDuration": "休息时长",
    "txtCustom": "定制",
    "txtNegativeNumber": "不是正数",
    "txtNotificationTitle": "是时候穿上运动服了！",
    "txtNotificationDesc": "只需几分钟即可感觉神清气爽",
    "txtRemindMe": "每日提醒",
    "txtNeedCameraPermission": "没有拍照权限，不能拍照",
    "btnStartWorkout": "开始锻炼",
    "txtAboutFeeel": "关于Feeel",
    "txtFeeelDescription": "一款尊重您的隐私的居家锻炼开源应用",
    "btnResumeWorkout": "接着锻炼",
    "btnDone": "已完成",
    "btnMoreInfo": "更多信息",
    "txtStrength": "强度",
    "txtStretchingAndYoga": "伸展运动和瑜珈",
    "txtCardio": "有氧运动",
    "txtOther": "其他",
    "txtAddExerciseFirst": "先加个练习",
    "txtNotificationInfoTitle": "每日通知",
    "txtNotificationTime": "通知时间",
    "txtHowToPerformExercise": "如何进行锻炼（可选）",
    "txtWorkoutTitleEmpty": "请指定锻炼标题",
    "txtDiscardChanges": "放弃修改吗？",
    "txtBreak": "休息！",
    "txtSubmitExerciseMessageTitle": "练习建议：%s",
    "txtWorkoutExercisesEmpty": "请至少添加 1 个练习",
    "txtNotANumber": "非数字",
    "txtNotificationInfoDesc": "每日提醒您锻炼身体",
    "txtParticipate": "参与",
    "txtDurationLong": "%1d 分钟，%2d 秒。",
    "txtNoExercises": "这组锻炼中没有锻炼内容。:(",
    "btnCancel": "取消",
    "txtBatteryOptimization": "在某些设备上，您可能需要禁用电池优化，Feeel才能可靠地工作。",
    "btnAddExercise": "添加练习",
    "btnDisableTTS": "用声音代替语音",
    "txtTheme": "主题",
    "txtThemeSystem": "系统默认",
    "txtThemeLight": "亮色",
    "txtThemeDark": "暗色",
    "btnEdit": "编辑",
    "txtLanguage": "语言",
    "txtNumberInputEmpty": "不能留空",
    "txtNumberInputNonnumeric": "必须是数字",
    "txtDragToReorder": "拖动此手柄可对练习重新排序。",
    "btnPreviousExercise": "上一个练习",
    "btnNextExercise": "下一个练习",
    "btnDelete": "删除",
    "btnDuplicate": "复制",
    "btnCreateCustomWorkout": "创建自定义锻炼",
    "btnAddCustomExerice": "提交自定义锻炼",
    "btnSubmitViaEmail": "通过电子邮件提交",
    "btnAddPhotoFromGallery": "从图库添加照片",
    "btnTakeAPhoto": "拍照",
    "btnAddALinkToPhotos": "为照片添加链接",
    "btnAdjustTiming": "调整时间",
    "btnDoneEditingTiming": "时间已经调整",
    "btnDeleteThisWorkout": "删除此锻炼",
    "btnBackToWorkoutList": "返回锻炼列表",
    "txtContributeExerciseExplainer": "Feelel 依靠像您这样的志愿者来提交锻炼内容和照片。 照片将首先被私下处理成三角形多面体版本，然后发送给您审批，获得同意后才会在应用中发布。 所有提交的照片和文字必须完全是您的作品。 感谢您的贡献！",
    "txtGetReady": "准备！",
    "txtImportWorkouts": "导入锻炼组合",
    "txtExportCustomWorkouts": "导出锻炼的自选组合",
    "txtDuplicateImportInfo": "如果导入的锻炼组合与 Feeel 内您已有的锻炼组合相同，就会有两组一样的锻炼组合，重复的需要手动删除。",
    "txtNoCustomWorkouts": "尚未有锻炼组合",
    "txtLearnTheExercise": "学习锻炼方法",
    "txtCommunityDrivenHeader": "Feeel 这个平台提供的内容都源于用户",
    "txtDuplicateImportTitle": "重复的锻炼组合不会简并成一个",
    "btnImportAnyway": "确定要导入",
    "btnIunderstand": "我理解"
}
